{
    "lt_createAcct":"Sign up",
    "lt_login":"Log in",
    "lt_login_with_fb":"Log in with Facebook",
    "lt_logout":"Log out",
    "lt_signUp":"Sign up",
    "lt_dashboard" : "Dashboard",
    "lt_forgotPassword":"Forgot password?",
    "lt_forgotPasswordTitle":"Forgot Password",
    "lt_enterEmailAddress":"Please enter your email address. Instructions to reset your password will be sent to you.",
    "lt_sendEmailbtn":"Send Email",

    "lt_selectSim":"Select SIM",
    "lt_no_sim_card":"No SIM available",
    "lt_manage":"Manage",
    "lt_mysims":"My SIMs",
    "lt_sims":"SIMs",
    "lt_payment":"Payment",
    "lt_paymentMethods":"Payment Methods",
    "lt_payment_method":"Select payment method",
    "lt_orderSummary":"Order summary:",
    "lt_noSimsInAccount":"No SIMs found in account.",
    "lt_gigSkyCredit":"GigSky Credit",
    "lt_paymentHistory":"Purchase History",
    "lt_account":"Account",
    "lt_activationCodeofNewSIM":"SIM card activation code",
    "lt_orderTotal":"Order total",
    "lt_about":"About",
    "lt_tnc":"Terms & Conditions",
    "lt_priPolicy":"Privacy Policy",
    "lt_support":"Support",
    "lt_contactUs":"Contact Us",
    "lt_sign-up-with-Email":"Sign up",
    "lt_email":"Email",
    "lt_password":"Password",
    "lt_passwordis-Short":"Your password must have a minimum of 4 characters.",
    "lt_firstName":"First Name",
    "lt_lastName":"Last Name",
    "lt_address":"Address",
    "lt_city":"City",
    "lt_stateRegion":"State / Region / Province",
    "lt_zipPostalCode":"ZIP / Postal Code",
    "lt_phone":"Phone",
    "lt_accountDetails":"Profile Details",
    "lt_change":"Change",
    "lt_cancel":"Cancel",
    "lt_save":"Save",
    "lt_changeEmail":"Change Email",
    "lt_changePassword":"Change Password",


    "lt_country-of-residence":"Country of Residence",
    "lt_select-country":"Select Country",
    "lt_logIn":"Log In",
    "lt_or":"OR",
    "lt_add-Creditcard" : "Add Credit Card",
    "lt_edit-Creditcard":"Edit Credit Card",
    "lt_creditCard-number":"Credit card number",
    "lt_nameonCard":"Name on card",
    "lt_expirationDate":"Expiration date",
    "lt_card-securityCode":"Card security code",
    "lt_all":"All",

    "lt_creditHistory":"GigSky Credit History",
    "lt_earnCredit1":"Like us on Facebook and get $5 of GigSky credit.",
    "lt_creditBalance":"GigSky Credit Balance",
    "lt_free":"Free",
    "lt_pending" : "Pending",
    "lt_complete" : "Complete",
    "lt_failed" :"Failed",
    "lt_remGigCr":"Reimbursed as GigSky Credit",
    "lt_allSims": "All SIMs",


    "lt_transactionPin":"Transaction PIN",
    "lt_oldtransactionPin":"Old Transaction PIN",
    "lt_newtransactionPin":"New Transaction PIN",
    "lt_confirmTransactionPin":"Confirm New Transaction PIN",
    "lt_setTransactionPin":"Transaction PIN",
    "lt_forgotPin":"Forgot Transaction PIN",
    "lt_transactionPinText":"A Transaction PIN is a 4-digit PIN used to confirm future data purchases from GigSky.",
    "lt_activationCode":"Activation code",
    "lt_nickName":"Nickname",
    "lt_help":"Help",
    "lt_view_all":"View all my SIMs",

    "lt_welcometo-Gigsky":"Welcome to GigSky!",
    "lt_activateSim":"Activate SIM",
    "lt_buyPlan":"Buy Plan",
    "lt_dontHaveSim":"Don't have a GigSky SIM card?",
    "lt_resetTPIN":"Do you want to reset your Transaction PIN?",
    "lt_resetTPINMsg":"Your Transaction PIN (TPIN) has been reset. A new TPIN was sent to your registered email address.",
    "lt_Ok":"OK",
    "lt_selectPaymentMethods":"Select default payment method",
    "lt_my_payment_methods":"My payment methods",
    "lt_no_payment_methods":"There is no payment method associated with this GigSky account.",
    "lt_add_payment_method":"Add payment method",
    "lt_addCreditCard":"Add new credit card",
    "lt_addPaypalAccount":"Add PayPal account",
    "lt_editPaypalAccount":"Edit PayPal",
    "lt_payWithPayPal":"Go to PayPal",
    "lt_login_toAddPayPal":"This action will take you to PayPal website, where you will be able to authorize GigSky payments.",
    "lt_login_toUpdatePayPal":"This action will take you to PayPal website, where you will be able to edit your account information.",
    "lt_edit":"Edit",
    "lt_delete":"Delete",
    "lt_deleteConfirmation":"Are you sure?",
    "lt_deleteConfirmation2":"This payment method will be deleted.",
    "lt_detailedUsage":"Detailed usage",
    "lt_otherPlans":"View other suitable plans",
    "lt_selectDestination":"Select destination",
    "lt_selectPlan":"Select a plan",
    "lt_makePayment":"Make payment",
    "lt_confirmPurchase":"Confirm Purchase",
    "lt_status":"Status",
    "lt_balance":"Balance",
    "lt_dataPlan":"Data Plan",
    "lt_location":"Location",
    "lt_network":"Network",
    "lt_duration":"Duration",
    "lt_sTime":"Start time",
    "lt_eTime":"End time",
    "lt_confPassword":"Confirm Password",
    "lt_MaxCC-error":"A maximum of %@ credit cards is permitted.",
    "lt_redirecting_to_paypal":"Redirecting to PayPal site.",
    "lt_MaxPP-error": "Only one PayPal account is permitted.",
    "lt_passwdForgot-success":"Instructions to reset your password have been sent to your registered email account.",
    "lt_no-GKCreditHis":"This account has no GigSky Credit history.",
    "lt_no-PayHis":"This account has no payment history.",
    "lt_activateNewSim":"Activate SIM",
    "lt_fbLink":"Facebook Link",
    "lt_editProfileDetails":"Edit Profile Details",
    "lt_blockSimMSG":"Blocking your SIM will prevent others from using it. You can unblock your SIM at any time from the SIM Details screen.",
    "lt_replaceSim":"Replace SIM",
    "lt_replaceSim_btn":"REPLACE SIM",
    "lt_blockSim":"BLOCK SIM",
    "lt_unblockSim":"UNBLOCK SIM",
    "lt_simActive":"Active",
    "lt_simBlocked":"Blocked",
    "lt_simICC":"ICCID",
    "lt_CSN":"CSN",
    "lt_WARNING":"WARNING!",
    "lt_replaceSimTExt":"This action will transfer all history to the new SIM card, and permanently block the old SIM card from being used.",
    "lt_transcationID":"Transaction ID",
    "lt_ID":"ID #",
    "lt_payprotext1":"Your payment is being processed.",
    "lt_payprotext4":"You can check the status of this purchase on the Payment History page.",
    "lt_kb":"KB",
    "lt_mb":"MB",
    "lt_gb":"GB",
    "lt_left":"remaining",
    "lt_days":"days",
    "lt_day":"day",
    "lt_1-day":"1 day",
    "lt_1_hour":"1 hour",
    "lt_minutes":"minutes",
    "lt_1_minute":"1 minute",
    "lt_hours":"hours",
    "lt_seconds":"seconds",
    "lt_x-other-current-plans":"Other active plans (%@):",
    "lt_sorry_free_plan_not_availalbe":"Sorry. Free plan is only available for currently available network.",
    "lt_sorry_free_plan_used":"Sorry. A free plan has already been used in your location.",
    "lt_confirm_topup":"Confirm top up",
    "lt_credit_card_x_charged_with_x":"Credit card ending %1$@ will be charged with %2$@.",
    "lt_paypal_x_charged_with_x":"Paypal account %1$@ will be charged with %2$@.",
    "lt_paypal_account_x":"PayPal account %@",
    "lt_credit_card_x":"Credit card ending %@",
    "lt_first":"First",
    "lt_previous":"Previous",
    "lt_next":"Next",
    "lt_last":"Last",
    "lt_myPlans":"My plans",
    "lt_activateSimText":"Activation code can be found on the GigSky SIM card holder",
    "lt_simDetails":"SIM Details",
    "lt_planDetails":"Plan Details",
    "lt_date":"Date",
    "lt_cNewPassword":"Confirm New Password",
    "lt_confirm_sim_block":"CONFIRM SIM BLOCK",
    "lt_no_search_results":"No search results found.",
    "lt_transaction_id_is_x":"Transaction ID is %@",
    "lt_free_plan_processed":"Free plan topup is being processed",
    "lt_x_doesnot_match_y":"%1$@ and %2$@ do not match",
    "lt_unable_to_process_the_request":"Unable to complete request due to an internal error. Please try again later.",
    "lt_successfully_created_pin":"A Transaction PIN has been created.",
    "lt_brought_to_you_buy":"Brought to you by:",
    "lt_ChangeTransactionPin":"Change TPIN",
    "lt_confirm_email_sent":"A confirmation email has been sent to your account.",
    "lt_please_enter_new_email":"New Email Address",
    "lt_old_password":"Old Password",
    "lt_new_password":"New Password",
    "lt_confirm_password":"Confirm New Password",
    "lt_enter-valid-password":"Your password must have a minimum of 4 characters.",
    "lt_pwd_changed_successfully":"Password changed successfully",
    "lt_fb_authorization_required":"Please authorize GigSky application to access Facebook account.",
    "lt_link":"Add link",
    "lt_unlink":"Remove link",
    "lt_payment_successful":"Payment Successful",
    "lt_purchase_successful_msg":"%1$@ of data for use in %2$@ has been applied to your GigSky account.",
    "lt_tpin_changed_successful_msg":"TPIN changed successfully.",
    "lt_loading_data":"Loading data...",
    "lt_preapproval_cancelled":"Your preapproval was cancelled.",
    "lt_simNotConnected":"Not connected",
    "lt_activePlan":"Active plan",
    "lt_noSIMAvailable":"No SIM available",
    "lt_need_to_activate_sim_to_buyplan":"You need to activate your GigSky SIM card to buy a plan.",
    "lt_profile_updated":"Your profile details have been updated.",
    "lt_sim_is_blocked_do_youwant_to_unblock":"Current SIM is blocked. Unblock the SIM to connect to GigSky.",
    "lt_account_activation_pending":"Confirmation mail has been sent to your registered email address. Please complete account activation by clicking on the link.",
    "lt_want_to_resend_act_link":"Do you want to resend the link?",
    "lt_accountActivation":"Account Activation",
    "lt_sendActivationLink_instructions":"Please enter your email address. Instructions to activate your account will be sent to you.",
    "lt_activation_link_send":"An activation link has been sent to your email account.",
    "lt_acctinactive-error":"Account is not activated",
    "lt_gigsky_stay_connected":"GigSky - Stay Connected",
    "lt_gigsky_app_title":"GigSky Account Login",
    "lt_email-change":"Email change confirmation",
    "lt_email-change-success":"Your account email ID has been changed. Please <a href=\"#/login\">log in</a> with new email ID.",
    "lt_email_confirm_success":"Welcome to GigSky. Your account is now active.",
    "lt_email-change-fail":"Email change confirmation link has expired. Please <a href=\"#/login\">log in</a> to your account and submit new change email request.",
    "lt_set-new-password":"Change Password",
    "lt_new-password-created":"Your account password has been changed. Please <a href=\"#/login\">log in</a> with new credentials.",
    "lt_new-password-message":"Set new password for your account.",
    "lt_unblock-account":"Unblock Account",
    "lt_unblock-account-message":"To complete unblocking of your account, please set a new password.",
    "lt_unblock-success-msg":"Your account is unblocked.<br/> Please <a href=\"#/login\">log in</a> with new credentials.",
    "lt_link-validity-expired-message":"Link validity has expired. <a href=\"#/forgotPasswd\">Click here</a> to generate link again.",
    "lt_activation-failed":"Activation Failed",
    "lt_activation-failed-error-msg":"Account activation link validity expired. <a href=\"#/sendactlink\">Click here</a> to resend activation email.",
    "lt_no_service_available_1":"Your SIM card and mobile device are unable to connect to GigSky's data service.",
    "lt_no_service_available_2":"Check that your device is connected to a mobile network, and that the settings are correct:",
    "lt_no_service_available_2_1":"- Cellular data is ON",
    "lt_no_service_available_2_2":"- Data roaming is ON",
    "lt_no_service_available_2_3":"- APN is \"gigsky\"",
    "lt_field_invalid":"%@ invalid",
    "lt_fields_not_matching":"%1$@ and %2$@ do not match",
    "lt_currency_subtext":"* Your currency is set to %@, based on your country of residence.",
    "lt_billingAddress":"Billing address",
    "lt_addTPIN":"Add Transaction PIN",
    "lt_Expired":"Expired",
    "lt_PayPal":"PayPal",
    "lt_goToDashBoard":"Go to Dashboard",
    "lt_confirm":"Confirm Transaction PIN",
    "lt_doyou_wantto_reset_pwd":"Do you want to reset your password?",
    "lt_activateNewSimCard":"Activate new SIM card",
    "lt_signupTitle":"Sign Up",
    "lt_loginTitle":"Log In",
    "lt_ChangeTPINTitle":"Change Transaction PIN",
    "lt_paymentMethodLabel":"Payment method",
    "lt_no-CreditHis":"This account has no GigSky Credit history.",
    "lt_purchase_id_x":"Purchase ID (#%@)",
    "lt_refund_id_x":"Refund ID (#%@)",
    "lt_currency_conversion":"Currency change",
    "lt_date_utc":"(Date / Time UTC)",
    "lt_description":"Description",
    "lt_amount":"Amount",
    "lt_Balance":"Balance",
    "lt_failed_purchase":"Failed purchase ID (#%1$@)",
    "lt_refund_for_id":"Refund for ID (#%@)",
    "lt_Miscellaneous":"Miscellaneous",
    "lt_AvailableBalance":"Available balance",
    "lt_transactions":"Transactions",
    "lt_remainingbalance":"Remaining balance:",
    "lt_paymentDetails":"Payment details:",
    "lt_acme_sim_topup_msg":"To purchase a data plan for this SIM card, use the Setup Carrier or Manage Account link in the Cellular Data settings of your Apple device.",
    "lt_purchases":"Purchases",
    "lt_acme_sim_not_connected":"Not connected to GigSky network.",
    "lt_optional":"(optional)",
    "lt_only_visa_or_master":"Only AMEX,VISA or MasterCard is supported.",
    "your-facebook-account-is-not-linked-to-any-gigsky-":"Your Facebook account is not linked to any GigSky account. If you have GigSky account, link it with Facebook account.",
    "lt_faq":"FAQ",
    "lt_press":"Press",
    "lt_careers":"Careers",
    "lt_partners":"Partners",
    "lt_terms_of_service":"Terms of Service",
    "lt_accept_terms_error":"In order to use our services, you must agree to GigSky's Terms of Service.",
    "lt_signup_text":"I agree to GigSky's %@",
    "lt_terms_of_serivce":"Terms of Service",
    "lt_terms_of_use":"Terms of Use",
    "lt_concur_ac_linked":"ACCOUNTS ARE LINKED",
    "lt_link_your_concur_ac_p1":"Log in to start tracking your data purchases through Concur.",
    "lt_not_registered":"Not registered yet?",
    "lt_ac_created_concur_linked":"ACCOUNT CREATED AND LINKED",
    "lt_connected_concur_note1":"Use the checkbox on the Review Order screen of the GigSky app to send a copy of the receipt for each data plan purchase to your Concur account.",
    "lt_linked_your_concur_ac_p1":"Your GigSky and Concur accounts are now connected!",
    "lt_signup_ac_concur":"SIGN UP WITH GIGSKY",
    "lt_create_ac_link_concur_p1":"Create a GigSky account, add your GigSky SIM card, and start tracking your data purchases with Concur.",
    "lt_ac_created_concur_ac_p1":"You have created a GigSky account and linked it with your Concur account!",
    "buy_sim_from_amazon":"You can buy a GigSky SIM card on Amazon.com.",
    "lt_add_sim":"Add SIM card",
    "lt_ac_created_confirm_p2":"You still need to add a GigSky SIM card to your GigSky account before you can start tracking data plan purchases in your Concur account.",
    "lt_link_your_concur_ac":"LINK YOUR CONCUR ACCOUNT",
    "lt_linked_accounts":"Linked Accounts",
    "lt_gs_ac_linked_to_x":"Your GigSky account is linked to %@",
    "lt_link_to_fb_msg":"Link to Facebook to automatically log in to your GigSky account with your Facebook credentials.",
    "lt_link_to_concur_msg":"Link to Concur to automatically send GigSky data purchase receipts to your Concur account for expense reporting.",
    "lt_unlink_to_x":"Unlink %@",
    "lt_link_to_x":"Link %@",
    "lt_send_ereceipt":"Send e-receipt to Concur",
    "lt_captcha_message":"Please complete CAPTCHA verification.",
    "lt_add_dataplan":"Add data plan",
    "lt_no_active_sim":"Sim selected is not active",
    "lt_confirm_unlink_facebook" : "Confirm unlink Facebook",
    "lt_confirm_unlink_facebook_mesage" : "Do you want to unlink Facebook?",
    "lt_confirm_unlink_concur" : "Confirm Unlink Concur",
    "lt_confirm_unlink_concur_mesage" : "Do you want to unlink Concur?",
    "lt_unlink_label" : "Unlink",
    "lt_gs_ac_linked_to_concur":"Your GigSky and Concur accounts are now linked. You can now optionally send a copy of the receipt for each data plan purchase to your Concur account.",
    "lt_account_confirmation": "Account Confirmation", 
    "lt_confirm_email_common_msg": "A confirmation email has been sent to %@.", 
    "lt_account_confirmation_msg": "Click the link given in that mail to confirm your account registration.", 
    "lt_account_confirmation_spam_msg": "If you don't see our email,check your Spam folder",
    "lt_continue": "Continue", 
     "lt_confirm_email_msg": "Check your spam folder if you have not received this email.You can request a new confirmation email by tapping the button below.Adding noreply@gigsky.com to your email contact list may help ensure delivery.",
     "lt_skip": "Skip",
    "lt_could_not_connect":"Unable to connect to GigSky's system.",
    "lt_your_name" : "Your Name",
    "lt_your_contact_email":"Your contact email address",
    "lt_gigsky_reg_email" : "GigSky account email (optional)",
    "lt_your_mobile" : "Your mobile device (optional)",
    "lt_your_location" : "Your location",
    "lt_subject" : "Subject",
    "lt_message" : "Message",
    "lt_send" : "Send",
    "lt_contact_us" : "You can also call us:",
    "lt_buy_sim": "Buy SIM",
    "lt_updated_at":"(更新日時: %@)",
    "lt_gigsky_servers_down":"Sorry. GigSky servers are currently down for maintenance and will be back shortly.",
    "lt_retry":"Retry"

}